simulation/qsim/FrequncyScaling.msim.vcd
$comment
	File created using the following command:
		vcd file FrequncyScaling.msim.vcd -direction
$end
$date
	Tue Sep 26 18:39:02 2023
$end
$version
	ModelSim Version 2020.1
$end
$timescale
	1ps
$end

$scope module FrequencyScaling_vlg_vec_tst $end
$var reg 1 ! clk_50Mhz $end
$var wire 1 " clk_3125khz $end

$scope module i1 $end
$var wire 1 # gnd $end
$var wire 1 $ vcc $end
$var wire 1 % unknown $end
$var tri1 1 & devclrn $end
$var tri1 1 ' devpor $end
$var tri1 1 ( devoe $end
$var wire 1 ) clk_3125khz~output_o $end
$var wire 1 * clk_50Mhz~input_o $end
$var wire 1 + clk_50Mhz~inputclkctrl_outclk $end
$var wire 1 , counter_3125khz[0]~3_combout $end
$var wire 1 - counter_3125khz[1]~2_combout $end
$var wire 1 . counter_3125khz[2]~1_combout $end
$var wire 1 / counter_3125khz[3]~0_combout $end
$var wire 1 0 clk_3125khz~0_combout $end
$var wire 1 1 clk_3125khz~reg0_q $end
$var wire 1 2 counter_3125khz [3] $end
$var wire 1 3 counter_3125khz [2] $end
$var wire 1 4 counter_3125khz [1] $end
$var wire 1 5 counter_3125khz [0] $end
$upscope $end
$upscope $end
$enddefinitions $end
#0
$dumpvars
0!
0"
0#
1$
x%
1&
1'
1(
0)
0*
0+
1,
0-
0.
0/
10
01
05
04
03
02
$end
#20000
1!
1*
1+
15
11
1)
1"
1-
0,
#40000
0!
0*
0+
#60000
1!
1*
1+
14
05
1,
#80000
0!
0*
0+
#100000
1!
1*
1+
15
1.
0-
0,
#120000
0!
0*
0+
#140000
1!
1*
1+
13
04
05
1,
#160000
0!
0*
0+
#180000
1!
1*
1+
15
1-
0,
#200000
0!
0*
0+
#220000
1!
1*
1+
14
05
1,
#240000
0!
0*
0+
#260000
1!
1*
1+
15
1/
0.
0-
0,
#280000
0!
0*
0+
#300000
1!
1*
1+
12
03
04
05
00
1,
#320000
0!
0*
0+
#340000
1!
1*
1+
15
01
0)
0"
1-
0,
#360000
0!
0*
0+
#380000
1!
1*
1+
14
05
1,
#400000
0!
0*
0+
#420000
1!
1*
1+
15
1.
0-
0,
#440000
0!
0*
0+
#460000
1!
1*
1+
13
04
05
1,
#480000
0!
0*
0+
#500000
1!
1*
1+
15
1-
0,
#520000
0!
0*
0+
#540000
1!
1*
1+
14
05
1,
#560000
0!
0*
0+
#580000
1!
1*
1+
15
0/
0.
0-
0,
#600000
0!
0*
0+
#620000
1!
1*
1+
02
03
04
05
10
1,
#640000
0!
0*
0+
#660000
1!
1*
1+
15
11
1)
1"
1-
0,
#680000
0!
0*
0+
#700000
1!
1*
1+
14
05
1,
#720000
0!
0*
0+
#740000
1!
1*
1+
15
1.
0-
0,
#760000
0!
0*
0+
#780000
1!
1*
1+
13
04
05
1,
#800000
0!
0*
0+
#820000
1!
1*
1+
15
1-
0,
#840000
0!
0*
0+
#860000
1!
1*
1+
14
05
1,
#880000
0!
0*
0+
#900000
1!
1*
1+
15
1/
0.
0-
0,
#920000
0!
0*
0+
#940000
1!
1*
1+
12
03
04
05
00
1,
#960000
0!
0*
0+
#980000
1!
1*
1+
15
01
0)
0"
1-
0,
